Math Camp R Sessions - Day 2
…
]

--

.pull-right[

other arguments could be _named_

```r
count(gss_cat, race, relig, sort = TRUE)
```

```
## # A tibble: 44 x 3
##    race  relig          n
##    <fct> <fct>      <int>
##  1 White Protestant  8188
##  2 White Catholic    4001
##  3 White None        2816
##  4 Black Protestant  2271
##  5 Other Catholic     916
##  6 White Christian    474
##  7 Other Protestant   387
##  8 Black None         384
##  9 White Jewish       370
## 10 Other None         323
## # … with 34 more rows
```
…
---
# Recoding, Releveling, and Replacing

## 3. base::replace edits the value of variables based on the value of potentially other variables

```r
gss_cat %>% 
  mutate(is_senior = NA,  # this makes a columns of NAs
         is_senior = replace(is_senior, `age < 65`,  "not senior"),
         is_senior = replace(is_senior, `age >= 65`, "senior")) %>% 
  select(age, is_senior)
```

```
## # A tibble: 21,483 x 2
##      age is_senior 
##    <int> <chr>     
##  1    26 not senior
##  2    48 not senior
##  3    67 senior    
##  4    39 not senior
##  5    25 not senior
##  6    25 not senior
##  7    36 not senior
##  8    44 not senior
##  9    44 not senior
## 10    47 not senior
## # … with 21,473 more rows
```
