MPA-ID 2019 Math Camp: R Session Slides
…
]

--

.pull-right[

```r
count(gss_cat, race, relig)
```

```
## # A tibble: 44 x 3
##    race  relig                       n
##    <fct> <fct>                   <int>
##  1 Other No answer                  14
##  2 Other Don't know                  3
##  3 Other Inter-nondenominational     2
##  4 Other Native american            16
##  5 Other Christian                  74
##  6 Other Orthodox-christian          1
##  7 Other Moslem/islam               42
##  8 Other Other eastern              10
##  9 Other Hinduism                   62
## 10 Other Buddhism                   72
## # … with 34 more rows
```
…
---

# Introducing a new dataset

.pull-left[

The WEO dataset in "long" form

```r
weo_long
```

```
## # A tibble: 6,112 x 5
##    country     continent  year   pop  rgdp
##    <chr>       <chr>     <dbl> <dbl> <dbl>
##  1 Afghanistan Asia       1992    NA    NA
##  2 Afghanistan Asia       1993    NA    NA
##  3 Afghanistan Asia       1994    NA    NA
##  4 Afghanistan Asia       1995    NA    NA
##  5 Afghanistan Asia       1996    NA    NA
##  6 Afghanistan Asia       1997    NA    NA
##  7 Afghanistan Asia       1998    NA    NA
##  8 Afghanistan Asia       1999    NA    NA
##  9 Afghanistan Asia       2000    NA    NA
## 10 Afghanistan Asia       2001    NA    NA
## # … with 6,102 more rows
```

]

--

.pull-right[

compare this to the original "wide" form....

```r
weo
```

```
## # A tibble: 191 x 66
##    country continent pop1992 pop1993 pop1994 pop1995 pop1996 pop1997
##    <chr>   <chr>       <dbl>   <dbl>   <dbl>   <dbl>   <dbl>   <dbl>
##  1 Afghan… Asia       NA      NA      NA      NA      NA       NA   
##  2 Albania Europe      3.22    3.20    3.14    3.14    3.17     3.15
##  3 Algeria Africa     26.3    26.9    27.5    28.1    28.6     29.0 
##  4 Angola  Africa     13.5    13.9    14.3    14.7    15.1     15.6 
##  5 Antigu… North Am…   0.062   0.063   0.065   0.067   0.068    0.07
##  6 Argent… South Am…  33.4    33.9    34.4    34.8    35.2     35.6 
##  7 Armenia Asia        3.45    3.37    3.29    3.22    3.17     3.14
##  8 Austra… Oceania    17.6    17.7    17.9    18.1    18.3     18.5 
##  9 Austria Europe      7.80    7.88    7.93    7.95    7.96     7.97
## 10 Azerba… Asia        7.46    7.49    7.60    7.64    7.73     7.8 
## # … with 181 more rows, and 58 more variables: pop1998 <dbl>,
## #   pop1999 <dbl>, pop2000 <dbl>, pop2001 <dbl>, pop2002 <dbl>,
## #   pop2003 <dbl>, pop2004 <dbl>, pop2005 <dbl>, pop2006 <dbl>,
## #   pop2007 <dbl>, pop2008 <dbl>, pop2009 <dbl>, pop2010 <dbl>,
## #   pop2011 <dbl>, pop2012 <dbl>, pop2013 <dbl>, pop2014 <dbl>,
## #   pop2015 <dbl>, pop2016 <dbl>, pop2017 <dbl>, pop2018 <dbl>,
## #   pop2019 <dbl>, pop2020 <dbl>, pop2021 <dbl>, pop2022 <dbl>,
## #   pop2023 <dbl>, rgdp1992 <dbl>, rgdp1993 <dbl>, rgdp1994 <dbl>,
## #   rgdp1995 <dbl>, rgdp1996 <dbl>, rgdp1997 <dbl>, rgdp1998 <dbl>,
…
]

--

.pull-right[

other arguments could be _named_

```r
count(gss_cat, race, relig, sort = TRUE)
```

```
## # A tibble: 44 x 3
##    race  relig          n
##    <fct> <fct>      <int>
##  1 White Protestant  8188
##  2 White Catholic    4001
##  3 White None        2816
##  4 Black Protestant  2271
##  5 Other Catholic     916
##  6 White Christian    474
##  7 Other Protestant   387
##  8 Black None         384
##  9 White Jewish       370
## 10 Other None         323
## # … with 34 more rows
```
…
---
# Recoding, Releveling, and Replacing

## 3. base::replace edits the value of variables based on the value of potentially other variables

```r
gss_cat %>% 
  mutate(is_senior = NA,  # this makes a columns of NAs
         is_senior = replace(is_senior, `age < 65`,  "not senior"),
         is_senior = replace(is_senior, `age >= 65`, "senior")) %>% 
  select(age, is_senior)
```

```
## # A tibble: 21,483 x 2
##      age is_senior 
##    <int> <chr>     
##  1    26 not senior
##  2    48 not senior
##  3    67 senior    
##  4    39 not senior
##  5    25 not senior
##  6    25 not senior
##  7    36 not senior
##  8    44 not senior
##  9    44 not senior
## 10    47 not senior
## # … with 21,473 more rows
```
…
