R basics with The Law of The Census
…
Read data

The first of line code you will write is often to read in data. Here, lets read in a subset of the 2010 Census. This is a 0.01 percent random sample of the entire U.S. Census.

cen10 <- read_csv("input/usc2010_001percent.csv", col_types = cols())

The data comes from IPUMS3, a great source to extract and analyze Census and Census-conducted survey (ACS, CPS) data.

What does this data look like?

cen10

## # A tibble: 30,871 x 13
##     year  serial pernum                   region         state countyfips
##    <int>   <int>  <int>                    <chr>         <chr>      <int>
##  1  2010 8801316      4 Middle Atlantic Division      New York          0
##  2  2010 9800859      1  East North Central Div.          Ohio        103
##  3  2010 8685036      1        Mountain Division        Nevada          3
##  4  2010 6350851      3  East North Central Div.      Michigan          0
##  5  2010 6150669      2  South Atlantic Division      Maryland         33
##  6  2010 8102175      1     New England Division New Hampshire          0
##  7  2010 4057665      1  West North Central Div.          Iowa          0
##  8  2010 7029004      2  West North Central Div.      Missouri          0
##  9  2010 8162406      2 Middle Atlantic Division    New Jersey          3
## 10  2010 1117846      3         Pacific Division    California         37
## # ... with 30,861 more rows, and 7 more variables: city <chr>,
## #   cpuma0010 <int>, sex <chr>, age <int>, race <chr>, hhtype <chr>,
## #   relate <chr>
…
What is an object?

Now that we have covered some hands-on ways to use graphics, lets go into some fundamentals of the R language.

Objects are abstract symbols in which you store data. Here we will create an object from copy, and assign cen10 to it.

copy <- cen10 

This looks the same as the original dataset:

copy

## # A tibble: 30,871 x 13
##     year  serial pernum                   region         state countyfips
##    <int>   <int>  <int>                    <chr>         <chr>      <int>
##  1  2010 8801316      4 Middle Atlantic Division      New York          0
##  2  2010 9800859      1  East North Central Div.          Ohio        103
##  3  2010 8685036      1        Mountain Division        Nevada          3
##  4  2010 6350851      3  East North Central Div.      Michigan          0
##  5  2010 6150669      2  South Atlantic Division      Maryland         33
##  6  2010 8102175      1     New England Division New Hampshire          0
##  7  2010 4057665      1  West North Central Div.          Iowa          0
##  8  2010 7029004      2  West North Central Div.      Missouri          0
##  9  2010 8162406      2 Middle Atlantic Division    New Jersey          3
## 10  2010 1117846      3         Pacific Division    California         37
## # ... with 30,861 more rows, and 7 more variables: city <chr>,
## #   cpuma0010 <int>, sex <chr>, age <int>, race <chr>, hhtype <chr>,
## #   relate <chr>
…
data frames

You can think of data frames maybe as matrices-plus, because a column can take on characters as well as numbers. As we just saw, this is often useful for real data analyses.

cen10

## # A tibble: 30,871 x 13
##     year  serial pernum                   region         state countyfips
##    <int>   <int>  <int>                    <chr>         <chr>      <int>
##  1  2010 8801316      4 Middle Atlantic Division      New York          0
##  2  2010 9800859      1  East North Central Div.          Ohio        103
##  3  2010 8685036      1        Mountain Division        Nevada          3
##  4  2010 6350851      3  East North Central Div.      Michigan          0
##  5  2010 6150669      2  South Atlantic Division      Maryland         33
##  6  2010 8102175      1     New England Division New Hampshire          0
##  7  2010 4057665      1  West North Central Div.          Iowa          0
##  8  2010 7029004      2  West North Central Div.      Missouri          0
##  9  2010 8162406      2 Middle Atlantic Division    New Jersey          3
## 10  2010 1117846      3         Pacific Division    California         37
## # ... with 30,861 more rows, and 7 more variables: city <chr>,
## #   cpuma0010 <int>, sex <chr>, age <int>, race <chr>, hhtype <chr>,
## #   relate <chr>

Another way to think about data frames is that it is a type of list. Try the str() code below and notice how it is organized in slots. Each slot is a vector. They can be vectors of numbers or characters.

# enter this on your console
str(cen10)

Extracting variables from lists

Often you want to inspect one variable of you r dataset. There are multiple ways to do this.

with the single-square bracket, as in a matrix:

cen10[, "race"]

## # A tibble: 30,871 x 1
##           race
##          <chr>
##  1       White
##  2       White
##  3       White
##  4       White
##  5 Black/Negro
##  6       White
##  7       White
##  8       White
##  9       White
## 10       White
## # ... with 30,861 more rows

which you can also refer to by the number of the column

cen10[, 11]

## # A tibble: 30,871 x 1
##           race
##          <chr>
##  1       White
##  2       White
##  3       White
##  4       White
##  5 Black/Negro
##  6       White
##  7       White
##  8       White
##  9       White
## 10       White
## # ... with 30,861 more rows
…
## [1] "White"       "White"       "White"       "White"       "Black/Negro"
## [6] "White"

and with the dollar-sign $

head(cen10$race)

## [1] "White"       "White"       "White"       "White"       "Black/Negro"
## [6] "White"

in the dplyr package, you can select multiple variables like this:

cen10 %>% select(race, state, age)

## # A tibble: 30,871 x 3
##           race         state   age
##          <chr>         <chr> <int>
##  1       White      New York     8
##  2       White          Ohio    24
##  3       White        Nevada    37
##  4       White      Michigan    12
##  5 Black/Negro      Maryland    18
##  6       White New Hampshire    50
##  7       White          Iowa    51
##  8       White      Missouri    41
##  9       White    New Jersey    62
## 10       White    California    25
## # ... with 30,861 more rows
…
