R programming with The Origins of Mistrust
…
library(dplyr)
library(readr)
library(haven)
library(ggplot2)

Read Data

library(haven)
nunn_full <- read_dta("./input/Nunn_Wantchekon_AER_2011.dta")

Nunn and Wantchekons main dataset has more than 20,000 observations. Each observation is a respondent from the Afrobarometer survey.

nunn_full

## # A tibble: 21,822 x 59
##     respno ethnicity murdock_name isocode     region     district
##      <chr>     <chr>        <chr>   <chr>      <chr>        <chr>
##  1 BEN0001       fon          FON     BEN atlnatique     KPOMASSE
##  2 BEN0002       fon          FON     BEN atlnatique     KPOMASSE
##  3 BEN0003       fon          FON     BEN atlnatique       OUIDAH
##  4 BEN0004       fon          FON     BEN atlnatique       OUIDAH
##  5 BEN0005       fon          FON     BEN atlnatique       OUIDAH
##  6 BEN0006       fon          FON     BEN atlnatique       OUIDAH
##  7 BEN0007       fon          FON     BEN atlnatique TORI-BOSSITO
##  8 BEN0008       fon          FON     BEN atlnatique TORI-BOSSITO
##  9 BEN0009       fon          FON     BEN atlnatique       ALLADA
## 10 BEN0010       fon          FON     BEN atlnatique       ALLADA
## # ... with 21,812 more rows, and 53 more variables: townvill <chr>,
## #   location_id <dbl>, trust_relatives <dbl>, trust_neighbors <dbl>,
## #   intra_group_trust <dbl>, inter_group_trust <dbl>,
## #   trust_local_council <dbl>, ln_export_area <dbl>, export_area <dbl>,
## #   export_pop <dbl>, ln_export_pop <dbl>, age <dbl>, age2 <dbl>,
## #   male <dbl>, urban_dum <dbl>, occupation <dbl>, religion <dbl>,
## #   living_conditions <dbl>, education <dbl>, near_dist <dbl>,
## #   distsea <dbl>, loc_murdock_name <chr>, loc_ln_export_area <dbl>,
## #   local_council_performance <dbl>, council_listen <dbl>,
…
