R application with The Democratic Peace
…
MID is a dataset that captures a dispute for a given country and year.

mid

## # A tibble: 6,132 x 5
##    ccode polity_code dispute StYear EndYear
##    <int>       <chr>   <int>  <int>   <int>
##  1   200         UKG       1   1902    1903
##  2     2         USA       1   1902    1903
##  3   345         YGS       1   1913    1913
##  4   300        <NA>       1   1913    1913
##  5   339         ALB       1   1946    1946
##  6   200         UKG       1   1946    1946
##  7   200         UKG       1   1951    1952
##  8   651         EGY       1   1951    1952
##  9   630         IRN       1   1856    1857
## 10   200         UKG       1   1856    1857
## # ... with 6,122 more rows
…
